valr demonstrations
…
read_bedgraph(): read a bedGraph file

read_genome(): read a UCSC “chrom size” file

read_vcf(): read the Variant Call Format

read_narrowpeak(): read narrowPeak files

read_broadpeak(): read broadPeak files

2.2.1 BED files

read_bed(system.file('extdata', '3fields.bed.gz', package = 'valr'))
#> # A tibble: 10 × 3
#>   chrom  start    end
#>   <chr>  <int>  <int>
#> 1  chr1  11873  14409
#> 2  chr1  14361  19759
#> 3  chr1  14406  29370
#> 4  chr1  34610  36081
#> 5  chr1  69090  70008
#> 6  chr1 134772 140566
#> # ... with 4 more rows
read_bed(n_fields = 6, system.file('extdata', '6fields.bed.gz', package = 'valr'))
#> # A tibble: 10 × 6
#>   chrom  start    end      name score strand
#>   <chr>  <int>  <int>     <chr> <chr>  <chr>
#> 1  chr1  11873  14409   DDX11L1     3      +
#> 2  chr1  14361  19759    WASH7P    10      -
#> 3  chr1  14406  29370    WASH7P     7      -
#> 4  chr1  34610  36081   FAM138F     3      -
#> 5  chr1  69090  70008     OR4F5     1      +
#> 6  chr1 134772 140566 LOC729737     3      -
#> # ... with 4 more rows
…
read_bedgraph(system.file('extdata', 'test.bg.gz', package = 'valr'))
#> # A tibble: 4 × 4
#>   chrom    start      end value
#>   <chr>    <int>    <int> <dbl>
#> 1 chr19 49302000 49302300 -1.00
#> 2 chr19 49302300 49302600 -0.75
#> 3 chr19 49302600 49302900 -0.50
#> 4 chr19 49302900 49303200 -0.25

2.2.4 VCF files

read_vcf() reads VCF files and assigns chrom, start and end columns to be used to downstream interval comparisons. Note the interval size is calculated as the length of the REF field in the original file.

read_vcf(system.file('extdata', 'test.vcf.gz', package = 'valr'))
#> # A tibble: 115 × 201
#>   CHROM   POS    ID                                          REF   ALT
#>   <int> <int> <chr>                                        <chr> <chr>
#> 1     1 10172     .                                       CCCTAA     C
#> 2     1 10390     . CCCCTAACCCCTAACCCTAACCCTAACCCTAACCCTAACCCTAA     C
#> 3     1 10397     .                                CCCCTAACCCTAA     C
#> 4     1 10403     .       ACCCTAACCCTAACCCTAACCCTAACCCTAACCCTAAC     A
#> 5     1 10409     .             ACCCTAACCCTAACCCTAACCCTAACCCTAAC     A
#> 6     1 10415     .                   ACCCTAACCCTAACCCTAACCCTAAC     A
#> # ... with 109 more rows, and 196 more variables: QUAL <dbl>,
#> #   FILTER <chr>, INFO <chr>, FORMAT <chr>, `101976-101976` <chr>,
#> #   `100920-100920` <chr>, `100231-100231` <chr>, `100232-100232` <chr>,
#> #   `100919-100919` <chr>, `101977-101977` <chr>, `100630-100630` <chr>,
#> #   `100640-100640` <chr>, `100631-100631` <chr>, `101583-101583` <chr>,
#> #   `101584-101584` <chr>, `101732-101732` <chr>, `101016-101016` <chr>,
#> #   `101708-101708` <chr>, `101730-101730` <chr>, `101582-101582` <chr>,
#> #   `101731-101731` <chr>, `101809-101809` <chr>, `101653-101653` <chr>,
#> #   `101652-101652` <chr>, `101806-101806` <chr>, `101807-101807` <chr>,
…
2.3.2.2 Map

bed_map maps signals onto intervals. Summary statistics for mapped signals can be specific using NSE with name / value pairs.

bedfile <- system.file('extdata', 'genes.hg19.chr22.bed.gz', package = 'valr')
bgfile  <- system.file('extdata', 'hela.h3k4.chip.bg.gz', package = 'valr')

x <- read_bed(bedfile, n_fields = 6)
y <- read_bedgraph(bgfile)

bed_map(x, y, means = mean(value.y), sds = sd(value.y))
#> # A tibble: 591 × 5
#>   chrom  start.x    end.x means   sds
#>   <chr>    <int>    <int> <dbl> <dbl>
#> 1 chr22 16150259 16193004  7.91 7.571
#> 2 chr22 16162065 16172265  1.00    NA
#> 3 chr22 16256331 16287937  1.00 0.000
#> 4 chr22 17071647 17073700  1.00 0.000
#> 5 chr22 17082800 17129720  1.12 0.327
#> 6 chr22 17134598 17156430  1.29 0.588
#> # ... with 585 more rows
…
2.3.2.5 Closest

bed_closest() identifies y intervals that are closest to x.

x <- bed_random(genome, n = 100)
y <- bed_random(genome, n = 100)

bed_closest(x, y)
#> # A tibble: 99 × 7
#>   chrom   start.x     end.x   start.y     end.y .overlap .distance
#>   <chr>     <int>     <int>     <int>     <int>    <int>     <int>
#> 1  chr1   4921725   4922725  69226270  69227270        0  64303545
#> 2  chr1  18521748  18522748  69226270  69227270        0  50703522
#> 3  chr1  18739282  18740282  69226270  69227270        0  50485988
#> 4  chr1  56436890  56437890  69226270  69227270        0  12788380
#> 5  chr1 108417647 108418647 136064461 136065461        0  27645814
#> 6  chr1 118151382 118152382 136064461 136065461        0  17912079
#> # ... with 93 more rows
…
# numbers of sampled intervals are proportional to chrom size
group_by(x, chrom) %>% summarize(n = n()) %>% arrange(desc(n))
#> # A tibble: 25 × 2
#>   chrom     n
#>   <chr> <int>
#> 1  chr1 80424
#> 2  chr2 78429
#> 3  chr3 64212
#> 4  chr4 62340
#> 5  chr5 58001
#> 6  chr6 55008
#> # ... with 19 more rows

2.3.3.2 Sample

Sampling can be done using dplyr:

x <- bed_random(genome)

# sample by number
sample_n(x, 1e3, replace = FALSE)
#> # A tibble: 1,000 × 3
#>   chrom     start       end
#>   <chr>     <int>     <int>
#> 1  chr2 212289263 212290263
#> 2  chr5  86119719  86120719
#> 3  chr8 140585044 140586044
#> 4  chr4  36362470  36363470
#> 5  chr4 147834818 147835818
#> 6  chr9  14044797  14045797
#> # ... with 994 more rows
…
# or sample intervals within groups
group_by(x, chrom) %>% sample_n(1)
#> Source: local data frame [25 x 3]
#> Groups: chrom [25]
#> 
#>   chrom     start       end
#>   <chr>     <int>     <int>
#> 1  chr1 105747789 105748789
#> 2 chr10  49907928  49908928
#> 3 chr11  62787101  62788101
#> 4 chr12  45964817  45965817
#> 5 chr13  60548688  60549688
#> 6 chr14  34531511  34532511
#> # ... with 19 more rows
…
all(x$end - x$start == y$end - y$start)

2.3.4 Other topics

2.3.4.1 Grouping related intervals

The group_by operation from dplyr serves a similar purpose to BEDtools groupby, and can be combined with dplyr::summarize to calculate summary statistics from groups.

x <- bed_random(genome)
y <- bed_random(genome)

bed_intersect(x, y) %>%
  group_by(chrom) %>%
  summarize(overlap.total = sum(.overlap))
#> # A tibble: 25 × 2
#>   chrom overlap.total
#>   <chr>         <int>
#> 1  chr1      26156419
#> 2 chr10      13838133
#> 3 chr11      14005918
#> 4 chr12      14216949
#> 5 chr13      11850603
#> 6 chr14      11098228
#> # ... with 19 more rows
…
2.3.5.2 Absolute distance

bed_absdist() - XXX

2.3.5.3 Relative distance

bed_reldist() computes the relative distance between a query interval and the two closest reference intervals. The relative distance can range between [0,0.5]. If the overall distribution of distances is biased toward zero, then the query and reference intervals tend to be closer in space (17). By default a summary with the frequency of each relative distance is reported.

x <- bed_random(genome)
y <- bed_random(genome)

bed_reldist(x, y)
#> # A tibble: 51 × 4
#>   reldist counts  total   freq
#>     <dbl>  <int>  <int>  <dbl>
#> 1    0.00  19813 999955 0.0198
#> 2    0.01  20140 999955 0.0201
#> 3    0.02  19658 999955 0.0197
#> 4    0.03  19790 999955 0.0198
#> 5    0.04  20032 999955 0.0200
#> 6    0.05  20389 999955 0.0204
#> # ... with 45 more rows
…
